<?xml version="1.0" encoding="UTF-8" standalone="no"?>
<!-- Created with Inkscape (http://www.inkscape.org/) -->

<svg
   xmlns:dc="http://purl.org/dc/elements/1.1/"
   xmlns:cc="http://creativecommons.org/ns#"
   xmlns:rdf="http://www.w3.org/1999/02/22-rdf-syntax-ns#"
   xmlns:svg="http://www.w3.org/2000/svg"
   xmlns="http://www.w3.org/2000/svg"
   xmlns:xlink="http://www.w3.org/1999/xlink"
   xmlns:sodipodi="http://sodipodi.sourceforge.net/DTD/sodipodi-0.dtd"
   xmlns:inkscape="http://www.inkscape.org/namespaces/inkscape"
   width="200mm"
   height="200mm"
   viewBox="0 0 200 200"
   version="1.1"
   id="svg8"
   sodipodi:docname="actionplus.svg"
   inkscape:version="0.92.2 2405546, 2018-03-11">
  <defs
     id="defs2">
    <linearGradient
       inkscape:collect="always"
       id="linearGradient2374">
      <stop
         offset="0.60000002"
         id="stop2370"
         style="stop-color:#444444;stop-opacity:0.60000002" />
      <stop
         offset="1"
         id="stop2372"
         style="stop-color:#aaaaaa;stop-opacity:0" />
    </linearGradient>
    <linearGradient
       inkscape:collect="always"
       id="linearGradient881">
      <stop
         offset="0"
         id="stop877"
         style="stop-color:#ffffff;stop-opacity:1" />
      <stop
         id="stop829"
         offset="0.63999999"
         style="stop-color:#ffffff;stop-opacity:1" />
      <stop
         offset="1"
         id="stop879"
         style="stop-color:#afafaf;stop-opacity:1" />
    </linearGradient>
    <radialGradient
       inkscape:collect="always"
       xlink:href="#linearGradient881"
       id="radialGradient883"
       cx="100"
       cy="100"
       fx="100"
       fy="100"
       r="64"
       gradientUnits="userSpaceOnUse" />
    <radialGradient
       inkscape:collect="always"
       xlink:href="#linearGradient2374"
       id="radialGradient2376"
       cx="142"
       cy="58"
       fx="142"
       fy="58"
       r="29"
       gradientUnits="userSpaceOnUse" />
  </defs>
  <sodipodi:namedview
     id="base"
     pagecolor="#ffffff"
     bordercolor="#666666"
     borderopacity="1.0"
     inkscape:pageopacity="0.0"
     inkscape:pageshadow="2"
     inkscape:zoom="1.4"
     inkscape:cx="149.49653"
     inkscape:cy="421.83163"
     inkscape:document-units="mm"
     inkscape:current-layer="svg8"
     showgrid="false"
     inkscape:window-width="3200"
     inkscape:window-height="1671"
     inkscape:window-x="0"
     inkscape:window-y="55"
     inkscape:window-maximized="1"
     inkscape:lockguides="false" />
  <metadata
     id="metadata5">
    <rdf:RDF>
      <cc:Work
         rdf:about="">
        <dc:format>image/svg+xml</dc:format>
        <dc:type
           rdf:resource="http://purl.org/dc/dcmitype/StillImage" />
        <dc:title />
      </cc:Work>
    </rdf:RDF>
  </metadata>
  <g
     inkscape:label="Layer 1"
     inkscape:groupmode="layer"
     id="layer1"
     transform="translate(0,-97)" />
  <circle
     style="fill:#aa0be8;fill-opacity:1;stroke:none;stroke-width:0;stroke-miterlimit:4;stroke-dasharray:none;stroke-opacity:1"
     id="path835-6"
     cx="100"
     cy="100"
     r="91" />
  <circle
     style="fill:url(#radialGradient883);fill-opacity:1;stroke:none;stroke-width:25;stroke-miterlimit:4;stroke-dasharray:none;stroke-opacity:1"
     id="path835"
     cx="100"
     cy="100"
     r="64" />
  <circle
     style="fill:url(#radialGradient2376);fill-opacity:1;stroke:none;stroke-width:28.40865707;stroke-miterlimit:4;stroke-dasharray:none;stroke-opacity:1"
     id="path837-6-3"
     cx="142"
     cy="58"
     r="29" />
  <circle
     style="fill:#ffffff;fill-opacity:1;stroke:none;stroke-width:28.40865517;stroke-miterlimit:4;stroke-dasharray:none;stroke-opacity:1"
     id="path837-6"
     cx="142"
     cy="58"
     r="20" />
  <circle
     style="fill:#19fcff;fill-opacity:1;stroke:none;stroke-width:11.68436813;stroke-miterlimit:4;stroke-dasharray:none;stroke-opacity:1"
     id="path875"
     cx="142"
     cy="58"
     r="15" />
</svg>
